Term	Overlap	P.value	Adjusted.P.value	Old.P.value	Old.Adjusted.P.value	Odds.Ratio	Combined.Score	Genes
specific granule membrane (GO:0035579)	5/91	0.0508194430811843	0.990552977507883	0	0	2.59667697887775	7.73673741294724	PLAU;PLAUR;OLR1;SLC2A3;GPR84
autophagosome membrane (GO:0000421)	2/18	0.0588201366040752	0.990552977507883	0	0	5.56463553530752	15.766120618249	GABARAPL1;MAP1LC3B2
platelet alpha granule lumen (GO:0031093)	4/67	0.0604296997813625	0.990552977507883	0	0	2.83258871817224	7.94902170594264	ACTN2;SERPINE1;THBS1;VEGFA
endoplasmic reticulum lumen (GO:0005788)	10/270	0.0770926424992485	0.990552977507883	0	0	1.72220239157594	4.41356975465902	COL1A1;COL2A1;SDC2;COL12A1;WNT5A;PLAUR;ARSI;MSLN;CHRDL1;THBS1
tertiary granule membrane (GO:0070821)	4/73	0.0776279114930626	0.990552977507883	0	0	2.58548071502006	6.60804460545048	PLAU;OLR1;SLC2A3;GPR84
chromosomal region (GO:0098687)	4/76	0.0870491319115159	0.990552977507883	0	0	2.47737096364099	6.04796259040633	FAM172BP;CHEK1;H2AFX;PMEPA1
chromosome, centromeric region (GO:0000775)	3/49	0.0933985819984122	0.990552977507883	0	0	2.90544967242406	6.88846995062673	FAM172BP;SNAI1;PMEPA1
paranode region of axon (GO:0033270)	1/6	0.125232314642033	0.990552977507883	0	0	8.88818181818182	18.4659509957906	ERMN
FACIT collagen trimer (GO:0005593)	1/6	0.125232314642033	0.990552977507883	0	0	8.88818181818182	18.4659509957906	COL12A1
Golgi stack (GO:0005795)	2/28	0.126117966952436	0.990552977507883	0	0	3.4226388645523	7.08670233836589	PLK3;RAB30
platelet alpha granule (GO:0031091)	4/90	0.137625025209514	0.990552977507883	0	0	2.0725879410356	4.11040303947375	ACTN2;SERPINE1;THBS1;VEGFA
specific granule (GO:0042581)	6/160	0.143095747410521	0.990552977507883	0	0	1.73802060008957	3.37913144913805	PLAU;PLAUR;OLR1;SLC2A3;CXCL1;GPR84
HAUS complex (GO:0070652)	1/8	0.16339646533579	0.990552977507883	0	0	6.34805194805195	11.499976834012	HAUS3
clathrin-coated endocytic vesicle membrane (GO:0030669)	2/33	0.164291115687181	0.990552977507883	0	0	2.86986553016386	5.18330812655566	WNT5A;HBEGF
main axon (GO:0044304)	2/33	0.164291115687181	0.990552977507883	0	0	2.86986553016386	5.18330812655566	SPTBN4;ERMN
lipid droplet (GO:0005811)	3/64	0.16735963789126	0.990552977507883	0	0	2.18931057713901	3.91363405387245	G0S2;PLIN2;DHRS3
autophagosome (GO:0005776)	3/64	0.16735963789126	0.990552977507883	0	0	2.18931057713901	3.91363405387245	GABARAPL1;TP53INP2;MAP1LC3B2
condensed nuclear chromosome (GO:0000794)	2/34	0.172155176795895	0.990552977507883	0	0	2.78003986332574	4.8910882045651	SYCP2L;CHEK1
pseudopodium (GO:0031143)	1/9	0.181850928911182	0.990552977507883	0	0	5.55426136363636	9.46761618100609	ACTN2
axon initial segment (GO:0043194)	1/9	0.181850928911182	0.990552977507883	0	0	5.55426136363636	9.46761618100609	SPTBN4
CatSper complex (GO:0036128)	1/10	0.199899212243296	0.990552977507883	0	0	4.93686868686869	7.94807214003587	HSPA2
actin-based cell projection (GO:0098858)	3/70	0.200617335621106	0.990552977507883	0	0	1.99263954201595	3.20088846091882	AOC3;ACTN2;DMD
nuclear speck (GO:0016607)	9/296	0.208297173193796	0.990552977507883	0	0	1.39895470383275	2.19466545265448	PPP1R16B;DUSP10;GADD45A;STK17A;NAMPT;H2AFX;NOSTRIN;HIF1A;DDR2
integral component of plasma membrane (GO:0005887)	37/1463	0.213535982461291	0.990552977507883	0	0	1.1645831308236	1.79805803678751	CD83;TUSC3;CXCR5;SLC2A3;GPR84;SLC7A11;LRRC32;CLDN1;SLC8A2;IL1RL2;EDNRB;HAS1;CXCR3;OLR1;FFAR1;SLC38A3;RHBDL1;SEMA6B;NTRK2;MPP2;KCNH4;JAG1;IL1R1;ADRA2B;EREG;SLC7A5;GPRC5A;SLCO4A1;CDHR4;ROR1;FGFR4;MET;PI4K2A;TNFRSF21;CD200;HBEGF;DDR2
beta-catenin-TCF complex (GO:1990907)	1/11	0.21755023525047	0.990552977507883	0	0	4.44295454545455	6.77695181222112	TLE3
anchored component of plasma membrane (GO:0046658)	2/40	0.220385573297285	0.990552977507883	0	0	2.34036686248651	3.53951622042818	LYPD3;ULBP2
condensed nuclear chromosome, centromeric region (GO:0000780)	1/12	0.2348127223852	0.990552977507883	0	0	4.03884297520661	5.85215022388019	SYCP2L
filopodium membrane (GO:0031527)	1/12	0.2348127223852	0.990552977507883	0	0	4.03884297520661	5.85215022388019	DMD
pericentric heterochromatin (GO:0005721)	1/12	0.2348127223852	0.990552977507883	0	0	4.03884297520661	5.85215022388019	SNAI1
node of Ranvier (GO:0033268)	1/12	0.2348127223852	0.990552977507883	0	0	4.03884297520661	5.85215022388019	SPTBN4
chaperonin-containing T-complex (GO:0005832)	1/13	0.25169520706934	0.990552977507883	0	0	3.70208333333333	5.10715878545995	CCT6B
nuclear nucleosome (GO:0000788)	1/13	0.25169520706934	0.990552977507883	0	0	3.70208333333333	5.10715878545995	HIST3H2A
ribonucleoprotein granule (GO:0035770)	3/80	0.258900816431795	0.990552977507883	0	0	1.73296566447251	2.3417742458312	ZC3H12A;SHB;ICOSLG
dystrophin-associated glycoprotein complex (GO:0016010)	1/14	0.268206035652328	0.990552977507883	0	0	3.41713286713287	4.49694618370063	DMD
cis-Golgi network (GO:0005801)	2/47	0.277751184047369	0.990552977507883	0	0	1.97560111364212	2.53080347962343	GOLGA8CP;RAB30
mitotic spindle (GO:0072686)	3/84	0.282837489847153	0.990552977507883	0	0	1.64704887535938	2.08002967420556	PMEPA1;HAUS3;GEM
lysosomal lumen (GO:0043202)	3/86	0.294880001694053	0.990552977507883	0	0	1.60719590691533	1.96268639329537	NEU4;SDC2;FMOD
tertiary granule (GO:0070820)	5/164	0.295503197008742	0.990552977507883	0	0	1.39922681899486	1.7057633063839	PLAU;OLR1;SLC2A3;CXCL1;GPR84
secretory vesicle (GO:0099503)	1/16	0.300145199767169	0.990552977507883	0	0	2.96121212121212	3.56378598413912	DPYSL3
exocytic vesicle (GO:0070382)	1/16	0.300145199767169	0.990552977507883	0	0	2.96121212121212	3.56378598413912	DPYSL3
BLOC-1 complex (GO:0031083)	1/16	0.300145199767169	0.990552977507883	0	0	2.96121212121212	3.56378598413912	PI4K2A
Golgi cisterna (GO:0031985)	2/50	0.302329287186399	0.990552977507883	0	0	1.85184130599848	2.21524386740455	GOLGA8CP;RAB30
clathrin-coated endocytic vesicle (GO:0045334)	2/50	0.302329287186399	0.990552977507883	0	0	1.85184130599848	2.21524386740455	WNT5A;HBEGF
mitochondrial respiratory chain complex IV (GO:0005751)	1/17	0.315589329444378	0.990552977507883	0	0	2.77599431818182	3.2015917257502	C15ORF48
AMPA glutamate receptor complex (GO:0032281)	1/18	0.330693399235597	0.990552977507883	0	0	2.61256684491979	2.89097142323961	CNIH2
nuclear euchromatin (GO:0005719)	1/18	0.330693399235597	0.990552977507883	0	0	2.61256684491979	2.89097142323961	HIST1H1A
striated muscle thin filament (GO:0005865)	1/19	0.345464880070065	0.990552977507883	0	0	2.46729797979798	2.6224029168024	MYBPC2
dendrite membrane (GO:0032590)	1/20	0.35991107920622	0.990552977507883	0	0	2.33732057416268	2.38850387512276	MPP2
Golgi lumen (GO:0005796)	3/98	0.367350655722263	0.990552977507883	0	0	1.40331651045422	1.40533507167037	SDC2;WNT5A;FMOD
euchromatin (GO:0000791)	1/21	0.374039143784253	0.990552977507883	0	0	2.22034090909091	2.18347175866915	HIST1H1A
nuclear matrix (GO:0016363)	2/59	0.374843192734424	0.990552977507883	0	0	1.55872597210566	1.52949595266789	SPTBN4;PMEPA1
filopodium (GO:0030175)	2/60	0.382727834643963	0.990552977507883	0	0	1.5317728379546	1.47116235888661	ACTN2;DMD
mitochondrial proton-transporting ATP synthase complex (GO:0005753)	1/22	0.387856064115817	0.990552977507883	0	0	2.11450216450216	2.00268935582409	PPIF
nuclear body (GO:0016604)	15/618	0.388963000935268	0.990552977507883	0	0	1.10690678065074	1.04522003151966	PPP1R16B;SPTBN4;FOXC2;CDKN1A;GADD45A;H2AFX;SMAD6;HIF1A;DUSP10;STK17A;NAMPT;BHLHE40;NOSTRIN;PMEPA1;DDR2
vacuole (GO:0005773)	2/62	0.398366498052467	0.990552977507883	0	0	1.48056188306758	1.36268376263917	GABARAPL1;TP53INP2
pre-autophagosomal structure (GO:0000407)	1/23	0.401368677331097	0.990552977507883	0	0	2.01828512396694	1.84244178877182	ATG2A
calcium channel complex (GO:0034704)	1/24	0.414583670638155	0.990552977507883	0	0	1.9304347826087	1.69971011615967	PDE4D
endosome lumen (GO:0031904)	1/24	0.414583670638155	0.990552977507883	0	0	1.9304347826087	1.69971011615967	GH1
cation channel complex (GO:0034703)	2/65	0.421470382668393	0.990552977507883	0	0	1.4098419929855	1.21811161745164	PDE4D;CNIH2
mitotic spindle pole (GO:0097431)	1/25	0.427507584733427	0.990552977507883	0	0	1.8499053030303	1.57201853818945	PMEPA1
condensed chromosome, centromeric region (GO:0000779)	1/26	0.440146816594907	0.990552977507883	0	0	1.77581818181818	1.45731974562423	SYCP2L
catenin complex (GO:0016342)	1/28	0.464596124527689	0.990552977507883	0	0	1.64410774410774	1.26035129474811	SMAD7
rough endoplasmic reticulum (GO:0005791)	1/28	0.464596124527689	0.990552977507883	0	0	1.64410774410774	1.26035129474811	ZC3H12A
Golgi cisterna membrane (GO:0032580)	1/28	0.464596124527689	0.990552977507883	0	0	1.64410774410774	1.26035129474811	GOLGA8CP
Golgi cis cisterna (GO:0000137)	1/28	0.464596124527689	0.990552977507883	0	0	1.64410774410774	1.26035129474811	GOLGA8CP
mitochondrial outer membrane (GO:0005741)	3/115	0.46722413553635	0.990552977507883	0	0	1.18927348336595	0.904973124650971	PDE2A;PMAIP1;HK2
sarcoplasmic reticulum (GO:0016529)	1/29	0.47641830560731	0.990552977507883	0	0	1.58530844155844	1.17544123930756	THBS1
chromatin (GO:0000785)	7/296	0.479210495621931	0.990552977507883	0	0	1.07545484987164	0.79112107432903	HIST3H2A;CHEK1;H2AFX;NRIP1;PMEPA1;HIST1H1A;HIC1
spindle midzone (GO:0051233)	1/30	0.487980020953547	0.990552977507883	0	0	1.53056426332288	1.09815049450172	GEM
endosomal part (GO:0044440)	1/31	0.49928699620231	0.990552977507883	0	0	1.4794696969697	1.0276014898841	GH1
sarcoplasm (GO:0016528)	1/31	0.49928699620231	0.990552977507883	0	0	1.4794696969697	1.0276014898841	THBS1
intercalated disc (GO:0014704)	1/31	0.49928699620231	0.990552977507883	0	0	1.4794696969697	1.0276014898841	SCN4B
dendrite (GO:0030425)	5/215	0.51514290681363	0.990552977507883	0	0	1.05662953254696	0.700873915630436	MPP2;TUBB3;PLK2;CNIH2;PI4K2A
nuclear periphery (GO:0034399)	2/78	0.515805821378337	0.990552977507883	0	0	1.16790552691524	0.773182539061881	SPTBN4;PMEPA1
chromosome, telomeric region (GO:0000781)	3/124	0.517246387571246	0.990552977507883	0	0	1.10030567191215	0.725361050834998	CHEK1;H2AFX;HIST1H2BB
site of double-strand break (GO:0035861)	1/34	0.531734872501072	0.990552977507883	0	0	1.34476584022039	0.849367920570062	H2AFX
clathrin-coated vesicle membrane (GO:0030665)	2/81	0.536092439304342	0.990552977507883	0	0	1.12338167872899	0.700370815070143	WNT5A;HBEGF
early endosome (GO:0005769)	5/222	0.543580738337396	0.990552977507883	0	0	1.02217477698389	0.623094265568726	AOC3;NTRK2;RAB20;CXCR4;PMEPA1
fibrillar center (GO:0001650)	3/131	0.554351976216854	0.990552977507883	0	0	1.03975813356164	0.613410985732282	FOXA1;CHD1;SMAD7
site of DNA damage (GO:0090734)	1/37	0.562084469532099	0.990552977507883	0	0	1.23251262626263	0.710054392506945	H2AFX
ionotropic glutamate receptor complex (GO:0008328)	1/39	0.581219052336627	0.990552977507883	0	0	1.16752392344498	0.633530665747909	CNIH2
integral component of Golgi membrane (GO:0030173)	1/40	0.590471186370516	0.990552977507883	0	0	1.13752913752914	0.599289525975751	A4GALT
condensed chromosome (GO:0000793)	1/40	0.590471186370516	0.990552977507883	0	0	1.13752913752914	0.599289525975751	CHEK1
heterochromatin (GO:0000792)	1/41	0.599519365295639	0.990552977507883	0	0	1.10903409090909	0.567411787740617	SNAI1
peroxisome (GO:0005777)	2/92	0.605364073677113	0.990552977507883	0	0	0.98552265249304	0.494658681334424	PXT1;DDR2
microbody (GO:0042579)	2/92	0.605364073677113	0.990552977507883	0	0	0.98552265249304	0.494658681334424	PXT1;DDR2
microvillus (GO:0005902)	1/42	0.608368075210332	0.990552977507883	0	0	1.08192904656319	0.537691897084623	AOC3
Golgi subcompartment (GO:0098791)	10/479	0.614365830933138	0.990552977507883	0	0	0.944399645788294	0.460078181841288	PLK3;FUT5;RAB30;GALNT5;B3GNT5;PMEPA1;SNX9;PI4K2A;RAB33A;FUT3
endoplasmic reticulum-Golgi intermediate compartment (GO:0005793)	2/95	0.622844008478017	0.990552977507883	0	0	0.953584637617263	0.451483399845594	GJB2;CNIH2
cell cortex part (GO:0044448)	1/44	0.625484541729399	0.990552977507883	0	0	1.03150105708245	0.484009861735677	SPTBN4
RNA polymerase II transcription factor complex (GO:0090575)	3/147	0.632435625712337	0.990552977507883	0	0	0.923468417047184	0.423111842169106	TLE3;DDIT3;HIF1A
endoplasmic reticulum-Golgi intermediate compartment membrane (GO:0033116)	1/47	0.649769826845387	0.990552977507883	0	0	0.964081027667984	0.415651090095136	CNIH2
recycling endosome membrane (GO:0055038)	1/47	0.649769826845387	0.990552977507883	0	0	0.964081027667984	0.415651090095136	FZD7
clathrin-coated vesicle (GO:0030136)	2/100	0.650637806032679	0.990552977507883	0	0	0.904699920970666	0.388841977600751	WNT5A;SNX9
nucleolar part (GO:0044452)	3/153	0.659156208467914	0.990552977507883	0	0	0.886255707762557	0.369386711904234	FOXA1;CHD1;SMAD7
cytosolic small ribosomal subunit (GO:0022627)	1/49	0.66508059421803	0.990552977507883	0	0	0.923816287878788	0.376775749006835	RPS10-NUDT3
focal adhesion (GO:0005925)	7/356	0.67265173898812	0.990552977507883	0	0	0.8877899990757	0.352033201038018	ACTN2;PLAU;MCAM;PLAUR;LAYN;FERMT2;DDR2
cortical actin cytoskeleton (GO:0030864)	1/52	0.686803600871862	0.990552977507883	0	0	0.869340463458111	0.326617216657936	SPTBN4
nuclear chromosome (GO:0000228)	1/52	0.686803600871862	0.990552977507883	0	0	0.869340463458111	0.326617216657936	CHEK1
mitochondrial large ribosomal subunit (GO:0005762)	1/52	0.686803600871862	0.990552977507883	0	0	0.869340463458111	0.326617216657936	MPV17L2
vacuolar lumen (GO:0005775)	3/161	0.692562908452181	0.990552977507883	0	0	0.841035200277441	0.3089594973565	NEU4;SDC2;FMOD
ruffle membrane (GO:0032587)	1/53	0.693727553359301	0.990552977507883	0	0	0.852578671328671	0.311767532607936	MTSS1L
small ribosomal subunit (GO:0015935)	1/53	0.693727553359301	0.990552977507883	0	0	0.852578671328671	0.311767532607936	RPS10-NUDT3
SCF ubiquitin ligase complex (GO:0019005)	1/54	0.700498773908719	0.990552977507883	0	0	0.836449399656947	0.297744756197711	ABTB2
ER to Golgi transport vesicle membrane (GO:0012507)	1/54	0.700498773908719	0.990552977507883	0	0	0.836449399656947	0.297744756197711	CNIH2
cytoplasmic vesicle membrane (GO:0030659)	1/54	0.700498773908719	0.990552977507883	0	0	0.836449399656947	0.297744756197711	SNX9
cytoplasmic vesicle (GO:0031410)	4/215	0.701141914066805	0.990552977507883	0	0	0.839328901276476	0.297999502276636	CXCR4;SNX9;PI4K2A;RND1
tertiary granule lumen (GO:1904724)	1/55	0.707120624017787	0.990552977507883	0	0	0.820917508417508	0.284492257501308	CXCL1
actin filament (GO:0005884)	1/55	0.707120624017787	0.990552977507883	0	0	0.820917508417508	0.284492257501308	ACTN2
caveola (GO:0005901)	1/56	0.713596391545061	0.990552977507883	0	0	0.805950413223141	0.271958097612259	SMO
cytoskeleton (GO:0005856)	10/520	0.713787337896662	0.990552977507883	0	0	0.866612074063964	0.292195772479373	TUBA3E;EPB41L4B;MPP2;RIPK2;ACTN2;ZC3H12A;HAUS3;SYN1;DDR2;RND1
cytoplasmic ribonucleoprotein granule (GO:0036464)	3/170	0.727132011881296	0.990552977507883	0	0	0.795340825198917	0.253433153640937	ZC3H12A;SHB;ICOSLG
membrane raft (GO:0045121)	2/119	0.741557760364815	0.990552977507883	0	0	0.757043007612484	0.226357542780425	DMD;PI4K2A
ficolin-1-rich granule membrane (GO:0101003)	1/61	0.743894092785069	0.990552977507883	0	0	0.738598484848485	0.218519238478299	SLC2A3
specific granule lumen (GO:0035580)	1/62	0.749558471909739	0.990552977507883	0	0	0.72645305514158	0.209415312282627	CXCL1
PML body (GO:0016605)	1/62	0.749558471909739	0.990552977507883	0	0	0.72645305514158	0.209415312282627	SPTBN4
Golgi membrane (GO:0000139)	8/442	0.761967142623568	0.990552977507883	0	0	0.814167580166239	0.221332958108625	GOLGA8CP;FUT5;RAB30;GALNT5;B3GNT5;PMEPA1;RAB33A;FUT3
lytic vacuole (GO:0000323)	3/183	0.771597905738598	0.990552977507883	0	0	0.737404870624049	0.191202971440351	NEU4;TINAGL1;CXCR4
integral component of endoplasmic reticulum membrane (GO:0030176)	2/128	0.777080926859122	0.990552977507883	0	0	0.702643092164732	0.17721416308563	DCSTAMP;ELOVL4
trans-Golgi network (GO:0005802)	3/185	0.777885922993772	0.990552977507883	0	0	0.729226253198856	0.183163691533445	RAB30;SNX9;PI4K2A
spindle (GO:0005819)	3/186	0.780976285499553	0.990552977507883	0	0	0.725203982334007	0.179278034636965	HAUS3;HSPA2;GEM
P-body (GO:0000932)	1/68	0.7810139097904	0.990552977507883	0	0	0.661194029850746	0.163422249773193	ZC3H12A
mitochondrial envelope (GO:0005740)	1/69	0.785858992262765	0.990552977507883	0	0	0.651437165775401	0.156981961365487	PPIF
Cul3-RING ubiquitin ligase complex (GO:0031463)	1/70	0.790597113658266	0.990552977507883	0	0	0.641963109354414	0.150840004010099	KBTBD8
nuclear transcription factor complex (GO:0044798)	1/71	0.7952306300442	0.990552977507883	0	0	0.63275974025974	0.144979876859314	HIF1A
coated vesicle (GO:0030135)	1/71	0.7952306300442	0.990552977507883	0	0	0.63275974025974	0.144979876859314	SNX9
nucleoplasm part (GO:0044451)	7/407	0.796707604447949	0.990552977507883	0	0	0.772540322580645	0.1755733368935	FOXC2;CDKN1A;BHLHE40;PMEPA1;SMAD6;HIF1A;DDR2
bicellular tight junction (GO:0005923)	1/72	0.799761845719313	0.990552977507883	0	0	0.62381562099872	0.139386166132638	CLDN1
centrosome (GO:0005813)	8/461	0.800441367438699	0.990552977507883	0	0	0.77924434995845	0.173453553788508	PLK3;RGCC;PLK2;CHEK1;H2AFX;HAUS3;RELB;SMAD7
early endosome membrane (GO:0031901)	1/73	0.804193014142143	0.990552977507883	0	0	0.61511994949495	0.134044461244052	PMEPA1
nuclear chromatin (GO:0000790)	4/253	0.811968511871162	0.990552977507883	0	0	0.709841654949317	0.147855557540527	HIST3H2A;H2AFX;NRIP1;HIST1H1A
COPII-coated ER to Golgi transport vesicle (GO:0030134)	1/75	0.812763977520831	0.990552977507883	0	0	0.598433660933661	0.124063988446006	CNIH2
axon (GO:0030424)	2/141	0.820832425307123	0.990552977507883	0	0	0.636502187771423	0.125668637423435	NTRK2;ROR1
secretory granule lumen (GO:0034774)	5/317	0.83129359610638	0.990552977507883	0	0	0.707443836744295	0.130715983764407	ACTN2;SERPINE1;CXCL1;THBS1;VEGFA
phagocytic vesicle (GO:0045335)	1/83	0.843463842333688	0.990552977507883	0	0	0.539828159645233	0.0918993980388122	RAB20
nuclear chromosome part (GO:0044454)	6/392	0.866280424070881	0.990552977507883	0	0	0.685117026978739	0.0983462249716603	HIST3H2A;SYCP2L;H2AFX;NRIP1;HIST1H2BB;HIST1H1A
polymeric cytoskeletal fiber (GO:0099513)	3/221	0.868564601502819	0.990552977507883	0	0	0.607672489631771	0.0856291438666675	TUBA3E;ACTN2;TUBB3
cytosolic part (GO:0044445)	2/159	0.868699581263281	0.990552977507883	0	0	0.563005092639612	0.0792474256447919	RPS10-NUDT3;CCT6B
microtubule organizing center (GO:0005815)	8/507	0.87402072610849	0.990552977507883	0	0	0.705707026061361	0.0950242905151962	PLK3;RGCC;PLK2;CHEK1;H2AFX;HAUS3;RELB;SMAD7
centriole (GO:0005814)	1/95	0.880355239889036	0.990552977507883	0	0	0.470623791102515	0.0599714820569231	PLK2
nucleolus (GO:0005730)	11/676	0.883777831055992	0.990552977507883	0	0	0.726819374016436	0.089798221320803	TSPYL2;PLK3;CDKN1A;GPRC5A;RGCC;FGF18;NRIP1;ARID5A;PHLDA1;ATF3;OASL
chromosome (GO:0005694)	1/97	0.885598078219685	0.990552977507883	0	0	0.46077178030303	0.0559801162909021	PMEPA1
actin cytoskeleton (GO:0015629)	4/294	0.891397061293487	0.990552977507883	0	0	0.608190641521345	0.0699208288082522	MYBPC2;ACTN2;DDR2;RND1
lysosome (GO:0005764)	6/422	0.906522248504327	0.990552977507883	0	0	0.634714854111406	0.0622907290400148	NEU4;TINAGL1;SDC2;CXCR4;FMOD;PI4K2A
spindle pole (GO:0000922)	1/107	0.908567181429617	0.990552977507883	0	0	0.41708833619211	0.0399931183261828	PMEPA1
nuclear chromosome, telomeric region (GO:0000784)	1/107	0.908567181429617	0.990552977507883	0	0	0.41708833619211	0.0399931183261828	HIST1H2BB
endocytic vesicle (GO:0030139)	1/108	0.910594076448274	0.990552977507883	0	0	0.413169073916737	0.0386966144153993	RAB20
cullin-RING ubiquitin ligase complex (GO:0031461)	2/181	0.911186524825889	0.990552977507883	0	0	0.493249004212214	0.0458759333810554	ABTB2;KBTBD8
ficolin-1-rich granule (GO:0101002)	2/184	0.915866743535502	0.990552977507883	0	0	0.485043430373726	0.0426277515218735	PRG2;SLC2A3
recycling endosome (GO:0055037)	1/119	0.93013815187003	0.990552977507883	0	0	0.374441448382126	0.0271178560400614	FZD7
ficolin-1-rich granule lumen (GO:1904813)	1/123	0.936133894927171	0.990552977507883	0	0	0.362090163934426	0.0238967785887486	PRG2
cytosolic ribosome (GO:0022626)	1/124	0.937550811028743	0.990552977507883	0	0	0.359127864005913	0.0231581176030458	RPS10-NUDT3
microtubule organizing center part (GO:0044450)	1/126	0.940291235645558	0.990552977507883	0	0	0.353345454545455	0.0217539342973819	PLK2
mitochondrial inner membrane (GO:0005743)	4/341	0.944959539865919	0.990552977507883	0	0	0.5220922257909	0.0295572945569323	CKMT1A;PDE2A;MPV17L2;SLC25A47
microtubule (GO:0005874)	2/210	0.947751305640259	0.990552977507883	0	0	0.423843525495006	0.022744777399094	TUBA3E;TUBB3
late endosome (GO:0005770)	1/140	0.956392357939857	0.993176679399082	0	0	0.317527795945062	0.014157622593539	CXCR4
mitochondrion (GO:0005739)	15/1026	0.968266459848447	0.993278359719477	0	0	0.645992672155584	0.0208319465925887	GABARAPL1;SDS;TUSC3;SIAH3;SMURF1;CKMT1A;CAMK2A;G0S2;MPV17L2;HAUS3;MAFF;PPIF;PMAIP1;PI4K2A;PTGES
perinuclear region of cytoplasm (GO:0048471)	4/378	0.968752968121466	0.993278359719477	0	0	0.469535848456295	0.0149057134071819	PPP1R16B;ACHE;PDE2A;APLP1
lysosomal membrane (GO:0005765)	2/291	0.988892579315821	0.999010574901879	0	0	0.303773123881738	0.00339301478026423	EEF1A2;PI4K2A
microtubule cytoskeleton (GO:0015630)	3/388	0.992040543779713	0.999010574901879	0	0	0.341113680839708	0.00272594236718686	TUBA3E;TUBB3;HAUS3
lytic vacuole membrane (GO:0098852)	1/233	0.994621743327606	0.999010574901879	0	0	0.189331896551724	0.00102102366739059	PI4K2A
mitochondrial matrix (GO:0005759)	1/308	0.999010574901879	0.999010574901879	0	0	0.14252294936334	0.000141085591486393	PPIF
