Term	Overlap	P.value	Adjusted.P.value	Old.P.value	Old.Adjusted.P.value	Odds.Ratio	Combined.Score	Genes
Tryptophan metabolism	7/42	0.00161022603714762	0.413828091546937	0	0	4.62660217654172	29.7554400100071	MAOB;ALDH1B1;EHHADH;AFMID;CYP1B1;KMO;IDO1
Staphylococcus aureus infection	8/68	0.00716706123530927	0.796034285327648	0	0	3.08410008071025	15.2300867629006	C1QB;FCGR3A;PTAFR;DEFA3;PLG;DEFA1;FCGR2C;C1QC
Protein digestion and absorption	9/90	0.0126812355704594	0.796034285327648	0	0	2.57037037037037	11.226431604537	DPP4;PRSS1;SLC7A8;KCNE3;COL5A3;COL4A5;PGA3;PRSS2;PGA5
Amino sugar and nucleotide sugar metabolism	6/48	0.014254946463916	0.796034285327648	0	0	3.29951690821256	14.0250958756022	HK3;UGDH;NAGK;HKDC1;NPL;GALK1
Neomycin, kanamycin and gentamicin biosynthesis	2/5	0.0159680800839981	0.796034285327648	0	0	15.3549679487179	63.5260136189534	HK3;HKDC1
ECM-receptor interaction	8/82	0.0208662100794637	0.796034285327648	0	0	2.49878934624697	9.66937565237325	LAMA2;ITGA3;ITGA10;CHAD;TNC;COL4A5;CD36;THBS4
Peroxisome	8/83	0.0222790455176924	0.796034285327648	0	0	2.46534301856336	9.37843283812166	PECR;ABCD2;NUDT7;EHHADH;PEX11A;IDH1;HSD17B4;NUDT12
Herpes simplex virus 1 infection	30/492	0.0247792773642848	0.796034285327648	0	0	1.51062867480778	5.585923504284	ZNF177;ZNF133;ZNF175;RNASEL;ZNF2;ZNF429;ZNF605;ZNF846;ZNF404;ZNF546;ZNF585B;IKBKE;ZNF860;ZNF221;ZNF284;ZNF283;ZNF382;DDX58;CARD9;HLA-G;ZFP69;OAS1;ZNF74;ZNF439;ZNF157;ZNF234;ZNF311;ZNF674;ZNF630;ZNF233
Linoleic acid metabolism	4/29	0.0311284564103241	0.888890366383698	0	0	3.6898313253012	12.8023600917384	CYP2J2;ALOX15;PLA2G4C;CYP3A4
NOD-like receptor signaling pathway	13/178	0.0358698854801885	0.921856056840843	0	0	1.8234451703392	6.06816510259164	RNASEL;CARD8;CARD9;CYBB;DEFA3;DEFA1;NLRC4;TRPM2;NLRP12;AIM2;CASP5;OAS1;IKBKE
Complement and coagulation cascades	7/79	0.0464748555367203	0.99913639170129	0	0	2.24469300013435	6.88861231710291	C1QB;PLG;VSIG4;F2;A2M;F2RL2;C1QC
Hematopoietic cell lineage	8/97	0.0495718299989426	0.99913639170129	0	0	2.07601273226868	6.23703262610556	CSF1R;FLT3;ITGA3;IL5RA;CD1E;CD36;CD1C;CD1A
Histidine metabolism	3/23	0.0688547856644956	0.99913639170129	0	0	3.45595667870036	9.24729525550876	MAOB;ALDH1B1;AMDHD1
Metabolism of xenobiotics by cytochrome P450	6/74	0.0880652569432655	0.99913639170129	0	0	2.03516624040921	4.94479697823409	GSTM4;ADH4;GSTM1;ADH1A;CYP1B1;CYP3A4
Phospholipase D signaling pathway	10/148	0.0909491073755401	0.99913639170129	0	0	1.67335021809484	4.0117821625804	DGKG;PDGFRB;PTGFR;CXCR1;PLA2G4C;CXCR2;FCER1A;DGKK;PLD1;F2
Fatty acid degradation	4/44	0.110007664089443	0.99913639170129	0	0	2.30433734939759	5.08614547710283	ADH4;ALDH1B1;ADH1A;EHHADH
Neuroactive ligand-receptor interaction	19/338	0.116025397110113	0.99913639170129	0	0	1.3773602323211	2.96675979881985	PTGFR;P2RY13;PRSS1;GZMA;PTAFR;OPRL1;GRIK1;PLG;TACR1;F2;MCHR1;RXFP2;TSHR;GNRHR;RLN2;UTS2;PRSS2;F2RL2;PTGDR
Choline metabolism in cancer	7/99	0.119489923800271	0.99913639170129	0	0	1.75487618947479	3.7282752317673	DGKG;PDGFRB;SLC44A5;SLC22A3;PLA2G4C;DGKK;PLD1
Arachidonic acid metabolism	5/63	0.121869838311104	0.99913639170129	0	0	1.9870221704588	4.1822876480423	CYP2J2;PLA2G4C;ALOX15;CYP4F3;ALOX15B
Cytosolic DNA-sensing pathway	5/63	0.121869838311104	0.99913639170129	0	0	1.9870221704588	4.1822876480423	CXCL10;AIM2;DDX58;POLR3GL;IKBKE
Chemical carcinogenesis	6/82	0.12715697073701	0.99913639170129	0	0	1.82017543859649	3.75380781032994	GSTM4;ADH4;GSTM1;ADH1A;CYP1B1;CYP3A4
Taste transduction	6/83	0.132553782099175	0.99913639170129	0	0	1.79644268774704	3.63019176535292	TAS2R10;TAS2R13;TAS2R14;TAS2R3;TAS2R5;TAS2R4
Central carbon metabolism in cancer	5/65	0.134170073186775	0.99913639170129	0	0	1.9205870526739	3.85778157697155	PDGFRB;HK3;FLT3;HKDC1;IDH1
Galactose metabolism	3/31	0.137537235589044	0.99913639170129	0	0	2.46750902527076	4.89519392119685	HK3;HKDC1;GALK1
Arginine and proline metabolism	4/49	0.146722774689852	0.99913639170129	0	0	2.04776439089692	3.93009063218935	CKMT2;MAOB;ALDH1B1;L3HYPDH
Ovarian steroidogenesis	4/49	0.146722774689852	0.99913639170129	0	0	2.04776439089692	3.93009063218935	CYP2J2;PLA2G4C;CYP1B1;CYP17A1
Glycolysis / Gluconeogenesis	5/68	0.153602522123122	0.99913639170129	0	0	1.82884331859	3.4261313681847	HK3;ADH4;ALDH1B1;HKDC1;ADH1A
Fructose and mannose metabolism	3/33	0.157363996364957	0.99913639170129	0	0	2.30276774969916	4.25826363580966	HK3;HKDC1;KHK
Osteoclast differentiation	8/127	0.161132448828402	0.99913639170129	0	0	1.55020652328728	2.82994632660272	CSF1R;FCGR3A;NCF1;LILRB1;LILRA1;FCGR2C;OSCAR;MAP2K6
Drug metabolism	7/108	0.164733214799094	0.99913639170129	0	0	1.59774683635232	2.88142137144068	GSTM4;ADH4;GSTM1;MAOB;ADH1A;CYP3A4;FMO4
Pentose and glucuronate interconversions	3/34	0.167589155160719	0.99913639170129	0	0	2.22836846395714	3.98040043872999	KL;UGDH;XYLB
Influenza A	10/171	0.177901427741732	0.99913639170129	0	0	1.43256648374842	2.47336279214696	CXCL10;PRSS1;RNASEL;OAS1;DDX58;PLG;PRSS2;IKBKE;MAP2K6;HSPA1A
Prion diseases	3/35	0.178001209455482	0.99913639170129	0	0	2.15861913357401	3.72570093045212	C1QB;HSPA1A;C1QC
Arrhythmogenic right ventricular cardiomyopathy (ARVC)	5/72	0.181185251629006	0.99913639170129	0	0	1.71929856147489	2.93696646207782	CACNB2;LAMA2;ITGA3;ITGA10;CACNA2D3
Phagosome	9/152	0.184756683370924	0.99913639170129	0	0	1.45121424030515	2.45068804613859	FCGR3A;NCF1;MRC1;CYBB;CD36;ATP6V1E2;HLA-G;FCGR2C;THBS4
Tyrosine metabolism	3/36	0.188584653225859	0.99913639170129	0	0	2.0930970353353	3.49172181392406	ADH4;MAOB;ADH1A
Vitamin B6 metabolism	1/6	0.225547131408399	0.99913639170129	0	0	4.60048019207683	6.85115532830193	PNPO
Synaptic vesicle cycle	5/78	0.225600249455358	0.99913639170129	0	0	1.57749062246972	2.34886879302589	CLTCL1;SLC6A12;SLC1A3;ATP6V1E2;SLC1A7
Glycerolipid metabolism	4/61	0.249482072709748	0.99913639170129	0	0	1.61564151342211	2.24310533091821	DGKG;ALDH1B1;LPL;DGKK
Hypertrophic cardiomyopathy (HCM)	5/85	0.280882316504377	0.99913639170129	0	0	1.43893244873341	1.82718448236308	CACNB2;LAMA2;ITGA3;ITGA10;CACNA2D3
Folate biosynthesis	2/26	0.295804370359939	0.99913639170129	0	0	1.91726762820513	2.33534116741018	SPR;MOCS1
Ascorbate and aldarate metabolism	2/27	0.311402967107521	0.99913639170129	0	0	1.84048076923077	2.14722908190535	UGDH;ALDH1B1
Hepatitis C	8/155	0.319868225292238	0.99913639170129	0	0	1.25308428456128	1.42832331487745	CXCL10;CLDN20;RNASEL;OAS1;DDX58;CLDN24;NR1H3;IKBKE
Endocrine and other factor-regulated calcium reabsorption	3/48	0.323710779762691	0.99913639170129	0	0	1.53397513036502	1.73017793853893	KL;CALB1;CLTCL1
Valine, leucine and isoleucine degradation	3/48	0.323710779762691	0.99913639170129	0	0	1.53397513036502	1.73017793853893	ALDH1B1;EHHADH;BCKDHB
Phototransduction	2/28	0.326926739725778	0.99913639170129	0	0	1.76960059171598	1.97844738605749	GUCY2D;CALML4
Dilated cardiomyopathy (DCM)	5/91	0.330123570812205	0.99913639170129	0	0	1.33812102000168	1.48302378696182	CACNB2;LAMA2;ITGA3;ITGA10;CACNA2D3
Fc gamma R-mediated phagocytosis	5/91	0.330123570812205	0.99913639170129	0	0	1.33812102000168	1.48302378696182	HCK;FCGR3A;NCF1;AMPH;PLD1
Malaria	3/49	0.335253474021525	0.99913639170129	0	0	1.50054936430702	1.63990297447873	HGF;CD36;THBS4
Cytokine-cytokine receptor interaction	14/294	0.343791687552374	0.99913639170129	0	0	1.15158536585366	1.22956999496761	ACVRL1;IL32;CX3CR1;CSF1R;IL23R;CXCL17;TNFRSF10C;IL5RA;CXCL10;CXCR1;CXCR2;CCR8;CCR2;BMPR1A
GnRH signaling pathway	5/93	0.346743285530242	0.99913639170129	0	0	1.30757210220419	1.38494190709101	PLA2G4C;GNRHR;CALML4;PLD1;MAP2K6
Citrate cycle (TCA cycle)	2/30	0.357668210159161	0.99913639170129	0	0	1.64302884615385	1.68927930239756	IDH1;OGDH
Nicotinate and nicotinamide metabolism	2/30	0.357668210159161	0.99913639170129	0	0	1.64302884615385	1.68927930239756	NMNAT3;NUDT12
Fluid shear stress and atherosclerosis	7/139	0.360147793545237	0.99913639170129	0	0	1.22053057784618	1.24645561660867	GSTM4;GSTM1;NCF1;GPC1;CALML4;MAP2K6;BMPR1A
Leishmaniasis	4/74	0.372380944125484	0.99913639170129	0	0	1.31469879518072	1.29870930397859	FCGR3A;NCF1;CYBB;FCGR2C
PPAR signaling pathway	4/74	0.372380944125484	0.99913639170129	0	0	1.31469879518072	1.29870930397859	EHHADH;LPL;NR1H3;CD36
Asthma	2/31	0.372849653456245	0.99913639170129	0	0	1.58628978779841	1.56500180174943	FCER1A;RNASE3
Mucin type O-glycan biosynthesis	2/31	0.372849653456245	0.99913639170129	0	0	1.58628978779841	1.56500180174943	C1GALT1C1;GALNTL6
beta-Alanine metabolism	2/31	0.372849653456245	0.99913639170129	0	0	1.58628978779841	1.56500180174943	ALDH1B1;EHHADH
Glycosaminoglycan biosynthesis	3/53	0.381227742730938	0.99913639170129	0	0	1.38021660649819	1.3310233851132	EXTL2;GLCE;UST
Propanoate metabolism	2/32	0.38788353208394	0.99913639170129	0	0	1.53333333333333	1.45214357784143	EHHADH;BCKDHB
Legionellosis	3/55	0.403970318983054	0.99913639170129	0	0	1.32699250208275	1.20280441137525	NLRC4;TLR5;HSPA1A
Inflammatory mediator regulation of TRP channels	5/100	0.405082854158118	0.99913639170129	0	0	1.2107802679195	1.09413812186283	CYP2J2;TRPA1;PLA2G4C;CALML4;MAP2K6
Glutathione metabolism	3/56	0.415251828582065	0.99913639170129	0	0	1.30188679245283	1.14418941053065	GSTM4;GSTM1;IDH1
Non-homologous end-joining	1/13	0.425293562026722	0.99913639170129	0	0	1.91616646658663	1.63827560191745	XRCC4
Pyrimidine metabolism	3/57	0.426463699170975	0.99913639170129	0	0	1.27771092392031	1.08890106230925	ENTPD3;ENTPD8;DHODH
Starch and sucrose metabolism	2/36	0.446282469430294	0.99913639170129	0	0	1.35265837104072	1.09132908590489	HK3;HKDC1
Focal adhesion	9/199	0.450066548925847	0.99913639170129	0	0	1.08953110047847	0.86983785397061	PDGFRB;LAMA2;ITGA3;HGF;ITGA10;CHAD;TNC;COL4A5;THBS4
Parathyroid hormone synthesis, secretion and action	5/106	0.454584616449405	0.99913639170129	0	0	1.1384944284537	0.897556227732448	GCM2;KL;MMP25;PLD1;CREB5
Oxytocin signaling pathway	7/153	0.45599848248684	0.99913639170129	0	0	1.10268175117192	0.865898264560649	CACNB2;TRPM2;RCAN1;PLA2G4C;CACNA2D3;CALML4;KCNJ2
Steroid hormone biosynthesis	3/60	0.459615158139143	0.99913639170129	0	0	1.21027297485591	0.940824761703096	CYP1B1;CYP3A4;CYP17A1
Primary immunodeficiency	2/37	0.460394364686841	0.99913639170129	0	0	1.31394230769231	1.01918805041343	AIRE;RAG1
Pyruvate metabolism	2/39	0.487973874661907	0.99913639170129	0	0	1.24278846153846	0.891692531290912	ALDH1B1;ACYP1
Ferroptosis	2/40	0.501428765709711	0.99913639170129	0	0	1.21002024291498	0.835269379745212	ALOX15;CYBB
Serotonergic synapse	5/113	0.510784939604748	0.99913639170129	0	0	1.06431220122414	0.715012002959548	CYP2J2;MAOB;ALOX15;PLA2G4C;ALOX15B
Human papillomavirus infection	14/330	0.512422463692794	0.99913639170129	0	0	1.01844705155912	0.68093967672303	PDGFRB;WNT5B;LAMA2;FZD4;ITGA3;TNC;HLA-G;THBS4;ITGA10;CHAD;COL4A5;ATP6V1E2;IKBKE;CREB5
Cortisol synthesis and secretion	3/65	0.512913244827097	0.99913639170129	0	0	1.11237917782695	0.742678357929974	MRAP;CREB5;CYP17A1
Nitrogen metabolism	1/17	0.515384468692009	0.99913639170129	0	0	1.43682472989196	0.952387943840318	CA8
Phenylalanine metabolism	1/17	0.515384468692009	0.99913639170129	0	0	1.43682472989196	0.952387943840318	MAOB
Primary bile acid biosynthesis	1/17	0.515384468692009	0.99913639170129	0	0	1.43682472989196	0.952387943840318	HSD17B4
Selenocompound metabolism	1/17	0.515384468692009	0.99913639170129	0	0	1.43682472989196	0.952387943840318	SCLY
Glutamatergic synapse	5/114	0.518626973019816	0.99913639170129	0	0	1.05449253549651	0.692348581618362	PLA2G4C;SLC1A3;GRIK1;PLD1;SLC1A7
Salivary secretion	4/90	0.520505746916649	0.99913639170129	0	0	1.06920706080134	0.698143401231769	ATP2B4;PRH2;CALML4;PRH1
Retinol metabolism	3/67	0.533439063429352	0.99913639170129	0	0	1.07750451263538	0.677115079650588	ADH4;ADH1A;CYP3A4
Chemokine signaling pathway	8/190	0.539620486092608	0.99913639170129	0	0	1.01024399329484	0.623208598764611	CX3CR1;CXCL10;HCK;NCF1;CXCR1;CXCR2;CCR8;CCR2
Amphetamine addiction	3/68	0.543516871229022	0.99913639170129	0	0	1.06087198000555	0.646807844388509	MAOB;CALML4;CREB5
Epithelial cell signaling in Helicobacter pylori infection	3/68	0.543516871229022	0.99913639170129	0	0	1.06087198000555	0.646807844388509	CXCR1;CXCR2;ATP6V1E2
Fc epsilon RI signaling pathway	3/68	0.543516871229022	0.99913639170129	0	0	1.06087198000555	0.646807844388509	PLA2G4C;FCER1A;MAP2K6
IL-17 signaling pathway	4/93	0.546525990742535	0.99913639170129	0	0	1.03300392581562	0.624113508489601	CXCL10;IKBKE;S100A9;S100A8
Carbohydrate digestion and absorption	2/44	0.552907610265674	0.99913639170129	0	0	1.09455128205128	0.648592081535634	HK3;HKDC1
Steroid biosynthesis	1/19	0.554992533542089	0.99913639170129	0	0	1.27704415099373	0.751924385833698	DHCR24
RIG-I-like receptor signaling pathway	3/70	0.563287248710111	0.99913639170129	0	0	1.02909639527992	0.590665899207755	CXCL10;DDX58;IKBKE
ABC transporters	2/45	0.565176460737231	0.99913639170129	0	0	1.06904069767442	0.610013091597526	ABCD2;ABCC5
Adrenergic signaling in cardiomyocytes	6/145	0.565914521048147	0.99913639170129	0	0	0.991919507871963	0.564711912033335	CACNB2;CACNA2D3;ATP2B4;CALML4;SCN5A;CREB5
Type II diabetes mellitus	2/46	0.577200987417253	0.99913639170129	0	0	1.04468968531469	0.574124616734181	HK3;HKDC1
Glycerophospholipid metabolism	4/97	0.580038206611981	0.99913639170129	0	0	0.988366368700609	0.538324915346863	DGKG;PLA2G4C;DGKK;PLD1
Pancreatic secretion	4/98	0.588191655124437	0.99913639170129	0	0	0.977800563957959	0.518921145226154	PRSS1;ATP2B4;SLC4A4;PRSS2
Ether lipid metabolism	2/47	0.588980210435629	0.99913639170129	0	0	1.02142094017094	0.540702141083375	PLA2G4C;PLD1
Phosphatidylinositol signaling system	4/99	0.596251808520661	0.99913639170129	0	0	0.967457197209892	0.500264574018946	DGKG;INPP4B;CALML4;DGKK
Epstein-Barr virus infection	8/201	0.603744957218916	0.99913639170129	0	0	0.952113312173029	0.480439639722279	CXCL10;ENTPD3;OAS1;DDX58;ENTPD8;HLA-G;IKBKE;MAP2K6
Terpenoid backbone biosynthesis	1/22	0.6084248049532	0.99913639170129	0	0	1.09443777511004	0.543806374351621	PDSS2
Gastric acid secretion	3/75	0.610357511528901	0.99913639170129	0	0	0.95738066586442	0.472668800133295	CALML4;KCNJ1;KCNJ2
Cocaine addiction	2/49	0.61180131438246	0.99913639170129	0	0	0.977853927986907	0.480466277358893	MAOB;CREB5
PI3K-Akt signaling pathway	14/354	0.618912953885915	0.99913639170129	0	0	0.945351506456241	0.453570804266695	PDGFRB;CSF1R;LAMA2;FLT3;ITGA3;HGF;TNC;BRCA1;THBS4;C8ORF44-SGK3;ITGA10;CHAD;COL4A5;CREB5
Pertussis	3/76	0.619353636859027	0.99913639170129	0	0	0.944216408684041	0.452354126275539	C1QB;CALML4;C1QC
Longevity regulating pathway	4/102	0.619858233005458	0.99913639170129	0	0	0.937693631669535	0.448465560461375	KL;CLPB;CREB5;HSPA1A
Cholesterol metabolism	2/50	0.62284360582406	0.99913639170129	0	0	0.957431891025641	0.453305536243915	LPL;CD36
Mannose type O-glycan biosynthesis	1/23	0.624771419226748	0.99913639170129	0	0	1.04463603623267	0.491364852092111	FKTN
Proximal tubule bicarbonate reclamation	1/23	0.624771419226748	0.99913639170129	0	0	1.04463603623267	0.491364852092111	SLC4A4
Renin-angiotensin system	1/23	0.624771419226748	0.99913639170129	0	0	1.04463603623267	0.491364852092111	NLN
Axon guidance	7/181	0.633754935850464	0.99913639170129	0	0	0.923876634838566	0.42137360668472	WNT5B;UNC5A;SEMA3C;SEMA3D;DPYSL2;SEMA3A;EPHB2
C-type lectin receptor signaling pathway	4/104	0.635105414515092	0.99913639170129	0	0	0.918843373493976	0.417122076689331	CLEC6A;CARD9;CALML4;IKBKE
Toll-like receptor signaling pathway	4/104	0.635105414515092	0.99913639170129	0	0	0.918843373493976	0.417122076689331	CXCL10;TLR5;IKBKE;MAP2K6
Autoimmune thyroid disease	2/53	0.654508149002059	0.99913639170129	0	0	0.900970965309201	0.381895682955223	HLA-G;TSHR
Glycosylphosphatidylinositol (GPI)-anchor biosynthesis	1/25	0.655448173910546	0.99913639170129	0	0	0.957482993197279	0.404475326264628	PIGZ
alpha-Linolenic acid metabolism	1/25	0.655448173910546	0.99913639170129	0	0	0.957482993197279	0.404475326264628	PLA2G4C
Kaposi sarcoma-associated herpesvirus infection	7/186	0.661859030894372	0.99913639170129	0	0	0.897833591158728	0.37053833823396	RCAN1;HCK;CCR8;CALML4;HLA-G;IKBKE;MAP2K6
Insulin resistance	4/108	0.664389837088183	0.99913639170129	0	0	0.883317886932345	0.361176492179426	NR1H3;CD36;SLC27A3;CREB5
Biosynthesis of unsaturated fatty acids	1/27	0.683619703733369	0.99913639170129	0	0	0.883738110628867	0.33613288759036	HSD17B4
Collecting duct acid secretion	1/27	0.683619703733369	0.99913639170129	0	0	0.883738110628867	0.33613288759036	ATP6V1E2
Fatty acid elongation	1/27	0.683619703733369	0.99913639170129	0	0	0.883738110628867	0.33613288759036	MECR
Leukocyte transendothelial migration	4/112	0.692030831152367	0.99913639170129	0	0	0.850423917893797	0.313062109745715	CLDN20;NCF1;CLDN24;CYBB
Endocytosis	9/244	0.692999966782608	0.99913639170129	0	0	0.878808510638298	0.322281339071331	CXCR1;CXCR2;CLTCL1;AMPH;VPS45;PLD1;HLA-G;RNF103-CHMP3;HSPA1A
Butanoate metabolism	1/28	0.696830540070732	0.99913639170129	0	0	0.850962607265128	0.307378777847437	EHHADH
Hepatocellular carcinoma	6/168	0.706528590413082	0.99913639170129	0	0	0.850062623009483	0.295304623208399	GSTM4;GSTM1;WNT5B;FZD4;HGF;DPF3
Lysine degradation	2/59	0.711421332198601	0.99913639170129	0	0	0.805878879892038	0.274394049320065	ALDH1B1;EHHADH
Viral myocarditis	2/59	0.711421332198601	0.99913639170129	0	0	0.805878879892038	0.274394049320065	LAMA2;HLA-G
Glyoxylate and dicarboxylate metabolism	1/30	0.721622157141457	0.99913639170129	0	0	0.792192739164631	0.258455737111979	AFMID
Cell adhesion molecules (CAMs)	5/145	0.727833779858081	0.99913639170129	0	0	0.819662243667069	0.26039241730181	CLDN20;SELL;CLDN24;PVR;HLA-G
RNA polymerase	1/31	0.733247892681375	0.99913639170129	0	0	0.765746298519408	0.237589210599844	POLR3GL
Basal cell carcinoma	2/63	0.744838984166909	0.99913639170129	0	0	0.752876733921816	0.221787858474979	WNT5B;FZD4
Small cell lung cancer	3/93	0.750363658051062	0.99913639170129	0	0	0.765182511030887	0.219758360790136	LAMA2;ITGA3;COL4A5
Ras signaling pathway	8/232	0.756178097340381	0.99913639170129	0	0	0.819007263922518	0.22889480044156	PDGFRB;CSF1R;FLT3;HGF;PLA2G4C;CALML4;RGL1;PLD1
Inflammatory bowel disease (IBD)	2/65	0.760268169947108	0.99913639170129	0	0	0.728899572649573	0.199779748917315	IL23R;TLR5
Rap1 signaling pathway	7/206	0.760409058788203	0.99913639170129	0	0	0.80674837306241	0.220967375182371	APBB1IP;PDGFRB;CSF1R;RGS14;HGF;CALML4;MAP2K6
SNARE interactions in vesicular transport	1/34	0.765295299301604	0.99913639170129	0	0	0.696023864091091	0.186181864695626	STX19
Acute myeloid leukemia	2/66	0.767675391310973	0.99913639170129	0	0	0.717472956730769	0.189691457297217	CSF1R;FLT3
Aminoacyl-tRNA biosynthesis	2/66	0.767675391310973	0.99913639170129	0	0	0.717472956730769	0.189691457297217	LARS;FARS2
Prostate cancer	3/97	0.775318807488097	0.99913639170129	0	0	0.732467931484753	0.186399149489526	PDGFRB;SPINT1;CREB5
Cushing syndrome	5/155	0.779227755775981	0.99913639170129	0	0	0.764616003216727	0.190734919686104	MRAP;WNT5B;FZD4;CREB5;CYP17A1
Aldosterone synthesis and secretion	3/98	0.781228077642492	0.99913639170129	0	0	0.724719741592248	0.178924708256848	ATP2B4;CALML4;CREB5
Autophagy	4/128	0.786156915197869	0.99913639170129	0	0	0.740069957248348	0.178059994562769	DEPTOR;ATG16L2;ATG10;ATG4C
Renin secretion	2/69	0.788712418618775	0.99913639170129	0	0	0.685239667049369	0.162644042235465	CALML4;KCNJ2
Purine metabolism	4/129	0.791191938265153	0.99913639170129	0	0	0.734110843373494	0.171939542120417	GUCY2C;GUCY2D;ENTPD3;ENTPD8
HIF-1 signaling pathway	3/100	0.792661911486457	0.99913639170129	0	0	0.709702631285124	0.164905431316762	HK3;HKDC1;CYBB
African trypanosomiasis	1/37	0.793496582811343	0.99913639170129	0	0	0.637921835400827	0.147555177085231	IDO1
Aldosterone-regulated sodium reabsorption	1/37	0.793496582811343	0.99913639170129	0	0	0.637921835400827	0.147555177085231	KCNJ1
Relaxin signaling pathway	4/130	0.796131525281053	0.99913639170129	0	0	0.728246318607764	0.166033514682718	RLN2;COL4A5;RXFP2;CREB5
Melanogenesis	3/101	0.798189724910644	0.99913639170129	0	0	0.702423929860753	0.158332647000409	WNT5B;FZD4;CALML4
Calcium signaling pathway	6/188	0.800772675541601	0.99913639170129	0	0	0.755852842809365	0.167934003683445	PDGFRB;PTGFR;PTAFR;ATP2B4;CALML4;TACR1
Allograft rejection	1/38	0.80212367050112	0.99913639170129	0	0	0.620648259303721	0.136848274139749	HLA-G
Bile secretion	2/72	0.808052579785318	0.99913639170129	0	0	0.655769230769231	0.139762882053861	CYP3A4;SLC4A4
Melanoma	2/72	0.808052579785318	0.99913639170129	0	0	0.655769230769231	0.139762882053861	PDGFRB;HGF
Glucagon signaling pathway	3/103	0.808875556289665	0.99913639170129	0	0	0.688303249097473	0.145996138362277	SIK1;CALML4;CREB5
Glycine, serine and threonine metabolism	1/40	0.818312842190836	0.99913639170129	0	0	0.588758580355219	0.118052317260513	MAOB
Inositol phosphate metabolism	2/74	0.820054597260862	0.99913639170129	0	0	0.637486645299145	0.126467379444469	FIG4;INPP4B
Thyroid hormone synthesis	2/74	0.820054597260862	0.99913639170129	0	0	0.637486645299145	0.126467379444469	TSHR;CREB5
Glioma	2/75	0.825799712007029	0.99913639170129	0	0	0.628721022128556	0.1203390987731	PDGFRB;CALML4
Fat digestion and absorption	1/41	0.825904312312054	0.99913639170129	0	0	0.574009603841537	0.109794465808355	CD36
Graft-versus-host disease	1/41	0.825904312312054	0.99913639170129	0	0	0.574009603841537	0.109794465808355	HLA-G
Homologous recombination	1/41	0.825904312312054	0.99913639170129	0	0	0.574009603841537	0.109794465808355	BRCA1
Estrogen signaling pathway	4/137	0.828116539922798	0.99913639170129	0	0	0.689663918833228	0.130071570829595	GPER1;CALML4;CREB5;HSPA1A
Measles	4/138	0.832327743244411	0.99913639170129	0	0	0.684481208415753	0.125622147290682	OAS1;DDX58;IKBKE;HSPA1A
Antigen processing and presentation	2/77	0.836797228076247	0.99913639170129	0	0	0.611891025641026	0.109022764558922	HLA-G;HSPA1A
Type I diabetes mellitus	1/43	0.840149955378047	0.99913639170129	0	0	0.546618647458984	0.0952072399343433	HLA-G
Tight junction	5/170	0.841850320460536	0.99913639170129	0	0	0.694557151734474	0.119570130136843	CLDN20;CLDN24;CD1E;CD1C;CD1A
Cardiac muscle contraction	2/78	0.842057186098208	0.99913639170129	0	0	0.603808198380567	0.103799067331016	CACNB2;CACNA2D3
TNF signaling pathway	3/110	0.842578686928061	0.99913639170129	0	0	0.643037889267519	0.110144818126395	CXCL10;MAP2K6;CREB5
Vasopressin-regulated water reabsorption	1/44	0.846829994516567	0.99913639170129	0	0	0.533878667746168	0.0887601683909374	CREB5
Glycosphingolipid biosynthesis	1/45	0.853231195871876	0.99913639170129	0	0	0.521717778020299	0.0828095132844702	FUT7
Toxoplasmosis	3/113	0.855371871479209	0.99913639170129	0	0	0.625402034788316	0.0976996599598149	LAMA2;MAP2K6;HSPA1A
Hedgehog signaling pathway	1/47	0.865243103964096	0.99913639170129	0	0	0.498982201576283	0.0722250622502345	CDON
Sphingolipid metabolism	1/47	0.865243103964096	0.99913639170129	0	0	0.498982201576283	0.0722250622502345	SGMS2
MAPK signaling pathway	9/295	0.870980784215784	0.99913639170129	0	0	0.720152574698029	0.0994785381299987	PDGFRB;CACNB2;CSF1R;FLT3;HGF;PLA2G4C;CACNA2D3;HSPA1A;MAP2K6
Tuberculosis	5/179	0.871864220148463	0.99913639170129	0	0	0.658319814760895	0.0902698518525567	FCGR3A;MRC1;CARD9;CALML4;FCGR2C
Sphingolipid signaling pathway	3/119	0.878254333344319	0.99913639170129	0	0	0.592866923938753	0.0769654230840184	FCER1A;SGMS2;PLD1
Salmonella infection	2/86	0.878890260707757	0.99913639170129	0	0	0.546073717948718	0.0704955147831946	NLRC4;TLR5
Human immunodeficiency virus 1 infection	6/212	0.88084908454524	0.99913639170129	0	0	0.666948079358379	0.0846150144678647	TRIM5;AP1S1;CALML4;SAMHD1;HLA-G;MAP2K6
N-Glycan biosynthesis	1/50	0.881445009382398	0.99913639170129	0	0	0.468358772080261	0.0591034402637123	DPAGT1
Vibrio cholerae infection	1/50	0.881445009382398	0.99913639170129	0	0	0.468358772080261	0.0591034402637123	ATP6V1E2
mTOR signaling pathway	4/152	0.882743103665187	0.99913639170129	0	0	0.619277108433735	0.0772368952516285	DEPTOR;WNT5B;FZD4;ATP6V1E2
Amyotrophic lateral sclerosis (ALS)	1/51	0.886401067372145	0.99913639170129	0	0	0.458967587034814	0.0553449547584504	MAP2K6
Mineral absorption	1/51	0.886401067372145	0.99913639170129	0	0	0.458967587034814	0.0553449547584504	CYBRD1
Olfactory transduction	14/444	0.889562541359309	0.99913639170129	0	0	0.74391378332388	0.0870568554145368	OR2A1;OR1D5;GUCY2D;OR2H2;OR2L5;OR2L3;OR2L2;CALML4;OR52K2;OR52K1;OR52W1;OR13D1;OR56B4;OR4F21
Transcriptional misregulation in cancer	5/186	0.891743628987022	0.99913639170129	0	0	0.632626675286073	0.0724842129935936	CSF1R;SPINT1;FLT3;BMP2K;DEFA3
Platelet activation	3/124	0.894805971684083	0.99913639170129	0	0	0.568219112689083	0.0631566313741124	APBB1IP;PLA2G4C;F2
Fanconi anemia pathway	1/54	0.900061718254761	0.99913639170129	0	0	0.432920337946499	0.045583023187461	BRCA1
Pathogenic Escherichia coli infection	1/55	0.904240348742477	0.99913639170129	0	0	0.424881063536526	0.0427685624515489	TLR5
Regulation of lipolysis in adipocytes	1/55	0.904240348742477	0.99913639170129	0	0	0.424881063536526	0.0427685624515489	TSHR
Cellular senescence	4/160	0.905183216413075	0.99913639170129	0	0	0.587272165585419	0.0585028237970562	CHEK2;CALML4;HLA-G;MAP2K6
Hippo signaling pathway	4/160	0.905183216413075	0.99913639170129	0	0	0.587272165585419	0.0585028237970562	WNT5B;RASSF4;FZD4;BMPR1A
Huntington disease	5/193	0.908907275140132	0.99913639170129	0	0	0.608846854708313	0.0581523010672699	DNAI2;DNAH7;CLTCL1;DNAH6;CREB5
Necroptosis	4/162	0.910163149051104	0.99913639170129	0	0	0.579777337196889	0.0545752587403744	ALOX15;PLA2G4C;CYBB;RNF103-CHMP3
Hepatitis B	4/163	0.912564871846454	0.99913639170129	0	0	0.576100628930818	0.0527109628390305	DDX58;IKBKE;MAP2K6;CREB5
Amoebiasis	2/96	0.913765099301738	0.99913639170129	0	0	0.48772504091653	0.0439838945438516	LAMA2;COL4A5
Dopaminergic synapse	3/131	0.914583329044109	0.99913639170129	0	0	0.536947202166065	0.0479422413482798	MAOB;CALML4;CREB5
Vascular smooth muscle contraction	3/132	0.917114838005144	0.99913639170129	0	0	0.532756835418241	0.0460954971286655	PLA2G4C;MRVI1;CALML4
VEGF signaling pathway	1/59	0.919280964979249	0.99913639170129	0	0	0.395496129486277	0.033286328338195	PLA2G4C
cGMP-PKG signaling pathway	4/166	0.91943038395973	0.99913639170129	0	0	0.565342852893054	0.0474893359046919	ATP2B4;MRVI1;CALML4;CREB5
Systemic lupus erythematosus	3/133	0.919577781058626	0.99913639170129	0	0	0.528630935851153	0.0443207601687482	C1QB;FCGR3A;C1QC
Long-term depression	1/60	0.922656825811017	0.99913639170129	0	0	0.388772458135797	0.0312953729257054	PLA2G4C
AGE-RAGE signaling pathway in diabetic complications	2/100	0.924877757792467	0.99913639170129	0	0	0.46771978021978	0.036525970043674	CYBB;COL4A5
Ribosome biogenesis in eukaryotes	2/101	0.927437101334963	0.99913639170129	0	0	0.462971056721057	0.0348757495535677	POP5;RPP40
Insulin signaling pathway	3/137	0.928775036805807	0.99913639170129	0	0	0.512743143488334	0.0378859375266872	HK3;HKDC1;CALML4
Ubiquitin mediated proteolysis	3/137	0.928775036805807	0.99913639170129	0	0	0.512743143488334	0.0378859375266872	DET1;AIRE;BRCA1
Chagas disease (American trypanosomiasis)	2/103	0.932310748065341	0.99913639170129	0	0	0.453755712109673	0.0318033291176682	C1QB;C1QC
Pathways in cancer	16/530	0.932812532953344	0.99913639170129	0	0	0.709788513314243	0.0493665205039906	GSTM4;PDGFRB;CSF1R;GSTM1;WNT5B;LAMA2;FZD4;FLT3;ITGA3;IL23R;HGF;IL5RA;CALML4;F2;PLD1;COL4A5
Signaling pathways regulating pluripotency of stem cells	3/139	0.933002094204851	0.99913639170129	0	0	0.505149713314929	0.0350310382341471	WNT5B;FZD4;BMPR1A
Long-term potentiation	1/67	0.942651993759846	0.99913639170129	0	0	0.347411691949507	0.0205174765542705	CALML4
cAMP signaling pathway	5/212	0.944040500023282	0.99913639170129	0	0	0.552408757422656	0.0318111273680853	ATP2B4;CALML4;PLD1;TSHR;CREB5
Alcoholism	4/180	0.945485604261037	0.99913639170129	0	0	0.519989047097481	0.0291488266128931	MAOB;CALML4;HDAC9;CREB5
Adipocytokine signaling pathway	1/69	0.947350444348422	0.99913639170129	0	0	0.337158392768872	0.018235615204403	CD36
Renal cell carcinoma	1/69	0.947350444348422	0.99913639170129	0	0	0.337158392768872	0.018235615204403	HGF
Breast cancer	3/147	0.947698066214152	0.99913639170129	0	0	0.476885278780586	0.0256179543306192	WNT5B;FZD4;BRCA1
Prolactin signaling pathway	1/70	0.949553442975732	0.99913639170129	0	0	0.332254640986829	0.0171986514552035	CYP17A1
Cholinergic synapse	2/112	0.950649654783275	0.99913639170129	0	0	0.416433566433566	0.021075569939975	KCNJ2;CREB5
Gastric cancer	3/149	0.95087182698062	0.99913639170129	0	0	0.470303150190396	0.0236919927248388	WNT5B;FZD4;HGF
Adherens junction	1/72	0.953687051068992	0.99913639170129	0	0	0.32286153898179	0.0153099973400939	PTPRB
p53 signaling pathway	1/72	0.953687051068992	0.99913639170129	0	0	0.32286153898179	0.0153099973400939	CHEK2
Bacterial invasion of epithelial cells	1/74	0.957482305859251	0.99913639170129	0	0	0.313983127497574	0.0136419507350729	CLTCL1
Pancreatic cancer	1/75	0.95926178656345	0.99913639170129	0	0	0.309723889555822	0.0128818076428637	PLD1
Human cytomegalovirus infection	5/225	0.960474232157207	0.99913639170129	0	0	0.519410023028841	0.0209468321602449	CXCR2;CALML4;HLA-G;MAP2K6;CREB5
AMPK signaling pathway	2/120	0.96287946433677	0.99913639170129	0	0	0.388037809647979	0.0146783224665668	CD36;CREB5
RNA degradation	1/79	0.965666184245475	0.99913639170129	0	0	0.293779050081571	0.0102637790768965	EXOSC5
Lysosome	2/123	0.9666679744081	0.99913639170129	0	0	0.378357438016529	0.0128263923815922	CLTCL1;AP1S1
JAK-STAT signaling pathway	3/162	0.96749823743006	0.99913639170129	0	0	0.431555525282111	0.014259317780917	PDGFRB;IL23R;IL5RA
Proteoglycans in cancer	4/201	0.97040881448481	0.99913639170129	0	0	0.46404501253746	0.0139389089305753	WNT5B;FZD4;GPC1;HGF
Viral carcinogenesis	4/201	0.97040881448481	0.99913639170129	0	0	0.46404501253746	0.0139389089305753	CCR8;HLA-G;HDAC9;CREB5
Insulin secretion	1/86	0.974549403899762	0.99913639170129	0	0	0.269486618176682	0.0069473824402096	CREB5
Natural killer cell mediated cytotoxicity	2/131	0.975038436132066	0.99913639170129	0	0	0.354744335122242	0.00896736462027877	FCGR3A;HLA-G
FoxO signaling pathway	2/132	0.97592955906788	0.99913639170129	0	0	0.351997041420118	0.00857636154205306	C8ORF44-SGK3;RAG1
Gap junction	1/88	0.976636370015136	0.99913639170129	0	0	0.263263926260159	0.00622379262200551	PDGFRB
GABAergic synapse	1/89	0.977614840061009	0.99913639170129	0	0	0.260258648914111	0.00589212843689813	SLC6A12
TGF-beta signaling pathway	1/90	0.97855237410876	0.99913639170129	0	0	0.257320905890446	0.00557896650246022	BMPR1A
Rheumatoid arthritis	1/91	0.979450682925355	0.99913639170129	0	0	0.254448446045085	0.00528321285422749	ATP6V1E2
Regulation of actin cytoskeleton	4/214	0.979992693991686	0.99913639170129	0	0	0.435020080321285	0.00879182649484268	PDGFRB;ITGA3;ITGA10;F2
NF-kappa B signaling pathway	1/95	0.982683440342231	0.99913639170129	0	0	0.243569768332865	0.0042547363729686	DDX58
Circadian entrainment	1/97	0.984103968304236	0.99913639170129	0	0	0.238470388155262	0.00382118479458457	CALML4
Th17 cell differentiation	1/107	0.989639606240515	0.99913639170129	0	0	0.215859928877211	0.00224805946400965	IL23R
Wnt signaling pathway	2/158	0.990775002624387	0.99913639170129	0	0	0.292930226824458	0.00271482202880775	WNT5B;FZD4
RNA transport	2/165	0.992902859350992	0.99913639170129	0	0	0.280247168475696	0.00199604508568142	POP5;RPP40
Thyroid hormone signaling pathway	1/116	0.992953203502258	0.99913639170129	0	0	0.198872592515267	0.00140637575062769	RCAN1
Neurotrophin signaling pathway	1/119	0.99380294958389	0.99913639170129	0	0	0.19378598897186	0.00120463801202	CALML4
Alzheimer disease	2/171	0.994338104574042	0.99913639170129	0	0	0.270212221210742	0.00153426086189176	LPL;CALML4
Cell cycle	1/124	0.994997784640423	0.99913639170129	0	0	0.185859709737554	0.000932043383995754	CHEK2
Human T-cell leukemia virus 1 infection	3/219	0.995203308028697	0.99913639170129	0	0	0.316720149752641	0.00152286428180022	CHEK2;HLA-G;CREB5
Oocyte meiosis	1/125	0.995207564256858	0.99913639170129	0	0	0.184351159818766	0.000885614912986614	CALML4
MicroRNAs in cancer	5/299	0.995412618637754	0.99913639170129	0	0	0.387156068700098	0.00178011870444489	PDGFRB;TNC;CYP1B1;BRCA1;TP63
Oxidative phosphorylation	1/133	0.996598326009246	0.99913639170129	0	0	0.173105605878715	0.000589852650134429	ATP6V1E2
Spliceosome	1/134	0.996741008239582	0.99913639170129	0	0	0.171795033802995	0.000560792906535822	HSPA1A
Thermogenesis	3/231	0.99684618864623	0.99913639170129	0	0	0.299860662486541	0.000947198390770176	DPF3;SLC25A20;CREB5
Apelin signaling pathway	1/137	0.997134148006113	0.99913639170129	0	0	0.167978956288398	0.000482093962212681	CALML4
Parkinson disease	1/142	0.997686856001445	0.99913639170129	0	0	0.161979685491218	0.000375116353906157	LRRK2
Retrograde endocannabinoid signaling	1/148	0.998211269439743	0.99913639170129	0	0	0.155319270565369	0.00027807309899117	NAPEPLD
Non-alcoholic fatty liver disease (NAFLD)	1/149	0.998286293638575	0.99913639170129	0	0	0.154261704681873	0.000264586040836621	NR1H3
Ribosome	1/153	0.998556197812386	0.99913639170129	0	0	0.150170594553611	0.000216973303915678	MRPL24
Protein processing in endoplasmic reticulum	1/165	0.99913639170129	0.99913639170129	0	0	0.139094662255146	0.000120175204254028	HSPA1A
