sample	group
T469_PBMC	PBMC
T469_PEMC	PEMC
T626_PBMC	PBMC
T626_PEMC	PEMC
T844_PBMC	PBMC
T844_PEMC	PEMC
SA03_PBMC	PBMC
SA03_PEMC	PEMC
PUC14_PBMC	PBMC
PUC14_PEMC	PEMC
HD5	HD
HD6	HD
HD7	HD
HD8	HD